%!PS-Adobe-3.0 EPSF-3.0
%%Title: src/vector graphics/clusterfixedwithclustering3.eps
%%Creator: matplotlib version 2.1.1, http://matplotlib.org/
%%CreationDate: Sun Jul 19 10:22:46 2020
%%Orientation: portrait
%%BoundingBox: 75 223 536 568
%%EndComments
%%BeginProlog
/mpldict 8 dict def
mpldict begin
/m { moveto } bind def
/l { lineto } bind def
/r { rlineto } bind def
/c { curveto } bind def
/cl { closepath } bind def
/box {
m
1 index 0 r
0 exch r
neg 0 r
cl
} bind def
/clipbox {
box
clip
newpath
} bind def
%!PS-Adobe-3.0 Resource-Font
%%Title: DejaVu Sans
%%Copyright: Copyright (c) 2003 by Bitstream, Inc. All Rights Reserved. Copyright (c) 2006 by Tavmjong Bah. All Rights Reserved. DejaVu changes are in public domain 
%%Creator: Converted from TrueType to type 3 by PPR
25 dict begin
/_d{bind def}bind def
/_m{moveto}_d
/_l{lineto}_d
/_cl{closepath eofill}_d
/_c{curveto}_d
/_sc{7 -1 roll{setcachedevice}{pop pop pop pop pop pop}ifelse}_d
/_e{exec}_d
/FontName /DejaVuSans def
/PaintType 0 def
/FontMatrix[.001 0 0 .001 0 0]def
/FontBBox[-1021 -463 1793 1232]def
/FontType 3 def
/Encoding [ /period /zero /one /two /three /four /six /eight ] def
/FontInfo 10 dict dup begin
/FamilyName (DejaVu Sans) def
/FullName (DejaVu Sans) def
/Notice (Copyright (c) 2003 by Bitstream, Inc. All Rights Reserved. Copyright (c) 2006 by Tavmjong Bah. All Rights Reserved. DejaVu changes are in public domain ) def
/Weight (Book) def
/Version (Version 2.35) def
/ItalicAngle 0.0 def
/isFixedPitch false def
/UnderlinePosition -130 def
/UnderlineThickness 90 def
end readonly def
/CharStrings 9 dict dup begin
/.notdef 0 def
/period{318 0 107 0 210 124 _sc
107 124 _m
210 124 _l
210 0 _l
107 0 _l
107 124 _l
_cl}_d
/zero{636 0 66 -13 570 742 _sc
318 664 _m
267 664 229 639 203 589 _c
177 539 165 464 165 364 _c
165 264 177 189 203 139 _c
229 89 267 64 318 64 _c
369 64 407 89 433 139 _c
458 189 471 264 471 364 _c
471 464 458 539 433 589 _c
407 639 369 664 318 664 _c
318 742 _m
399 742 461 709 505 645 _c
548 580 570 486 570 364 _c
570 241 548 147 505 83 _c
461 19 399 -13 318 -13 _c
236 -13 173 19 130 83 _c
87 147 66 241 66 364 _c
66 486 87 580 130 645 _c
173 709 236 742 318 742 _c
_cl}_d
/one{636 0 110 0 544 729 _sc
124 83 _m
285 83 _l
285 639 _l
110 604 _l
110 694 _l
284 729 _l
383 729 _l
383 83 _l
544 83 _l
544 0 _l
124 0 _l
124 83 _l
_cl}_d
/two{{636 0 73 0 536 742 _sc
192 83 _m
536 83 _l
536 0 _l
73 0 _l
73 83 _l
110 121 161 173 226 239 _c
290 304 331 346 348 365 _c
380 400 402 430 414 455 _c
426 479 433 504 433 528 _c
433 566 419 598 392 622 _c
365 646 330 659 286 659 _c
255 659 222 653 188 643 _c
154 632 117 616 78 594 _c
78 694 _l
118 710 155 722 189 730 _c
223 738 255 742 284 742 _c
}_e{359 742 419 723 464 685 _c
509 647 532 597 532 534 _c
532 504 526 475 515 449 _c
504 422 484 390 454 354 _c
446 344 420 317 376 272 _c
332 227 271 164 192 83 _c
_cl}_e}_d
/three{{636 0 76 -13 556 742 _sc
406 393 _m
453 383 490 362 516 330 _c
542 298 556 258 556 212 _c
556 140 531 84 482 45 _c
432 6 362 -13 271 -13 _c
240 -13 208 -10 176 -4 _c
144 1 110 10 76 22 _c
76 117 _l
103 101 133 89 166 81 _c
198 73 232 69 268 69 _c
330 69 377 81 409 105 _c
441 129 458 165 458 212 _c
458 254 443 288 413 312 _c
383 336 341 349 287 349 _c
}_e{202 349 _l
202 430 _l
291 430 _l
339 430 376 439 402 459 _c
428 478 441 506 441 543 _c
441 580 427 609 401 629 _c
374 649 336 659 287 659 _c
260 659 231 656 200 650 _c
169 644 135 635 98 623 _c
98 711 _l
135 721 170 729 203 734 _c
235 739 266 742 296 742 _c
370 742 429 725 473 691 _c
517 657 539 611 539 553 _c
539 513 527 479 504 451 _c
481 423 448 403 406 393 _c
_cl}_e}_d
/four{636 0 49 0 580 729 _sc
378 643 _m
129 254 _l
378 254 _l
378 643 _l
352 729 _m
476 729 _l
476 254 _l
580 254 _l
580 172 _l
476 172 _l
476 0 _l
378 0 _l
378 172 _l
49 172 _l
49 267 _l
352 729 _l
_cl}_d
/six{{636 0 70 -13 573 742 _sc
330 404 _m
286 404 251 388 225 358 _c
199 328 186 286 186 234 _c
186 181 199 139 225 109 _c
251 79 286 64 330 64 _c
374 64 409 79 435 109 _c
461 139 474 181 474 234 _c
474 286 461 328 435 358 _c
409 388 374 404 330 404 _c
526 713 _m
526 623 _l
501 635 476 644 451 650 _c
425 656 400 659 376 659 _c
310 659 260 637 226 593 _c
}_e{192 549 172 482 168 394 _c
187 422 211 444 240 459 _c
269 474 301 482 336 482 _c
409 482 467 459 509 415 _c
551 371 573 310 573 234 _c
573 159 550 99 506 54 _c
462 9 403 -13 330 -13 _c
246 -13 181 19 137 83 _c
92 147 70 241 70 364 _c
70 479 97 571 152 639 _c
206 707 280 742 372 742 _c
396 742 421 739 447 735 _c
472 730 498 723 526 713 _c
_cl}_e}_d
/eight{{636 0 68 -13 568 742 _sc
318 346 _m
271 346 234 333 207 308 _c
180 283 167 249 167 205 _c
167 161 180 126 207 101 _c
234 76 271 64 318 64 _c
364 64 401 76 428 102 _c
455 127 469 161 469 205 _c
469 249 455 283 429 308 _c
402 333 365 346 318 346 _c
219 388 _m
177 398 144 418 120 447 _c
96 476 85 511 85 553 _c
85 611 105 657 147 691 _c
188 725 245 742 318 742 _c
}_e{390 742 447 725 489 691 _c
530 657 551 611 551 553 _c
551 511 539 476 515 447 _c
491 418 459 398 417 388 _c
464 377 501 355 528 323 _c
554 291 568 251 568 205 _c
568 134 546 80 503 43 _c
459 5 398 -13 318 -13 _c
237 -13 175 5 132 43 _c
89 80 68 134 68 205 _c
68 251 81 291 108 323 _c
134 355 171 377 219 388 _c
183 544 _m
183 506 194 476 218 455 _c
}_e{242 434 275 424 318 424 _c
360 424 393 434 417 455 _c
441 476 453 506 453 544 _c
453 582 441 611 417 632 _c
393 653 360 664 318 664 _c
275 664 242 653 218 632 _c
194 611 183 582 183 544 _c
_cl}_e}_d
end readonly def

/BuildGlyph
 {exch begin
 CharStrings exch
 2 copy known not{pop /.notdef}if
 true 3 1 roll get exec
 end}_d

/BuildChar {
 1 index /Encoding get exch get
 1 index /BuildGlyph get exec
}_d

FontName currentdict end definefont pop
end
%%EndProlog
mpldict begin
75.6 223.2 translate
460.8 345.6 0 0 clipbox
gsave
0 0 m
460.8 0 l
460.8 345.6 l
0 345.6 l
cl
1.000 setgray
fill
grestore
gsave
57.6 38.016 m
414.72 38.016 l
414.72 304.128 l
57.6 304.128 l
cl
1.000 setgray
fill
grestore
/p0_0 {
newpath
translate
0 -3 m
0.795609 -3 1.55874 -2.683901 2.12132 -2.12132 c
2.683901 -1.55874 3 -0.795609 3 0 c
3 0.795609 2.683901 1.55874 2.12132 2.12132 c
1.55874 2.683901 0.795609 3 0 3 c
-0.795609 3 -1.55874 2.683901 -2.12132 2.12132 c
-2.683901 1.55874 -3 0.795609 -3 0 c
-3 -0.795609 -2.683901 -1.55874 -2.12132 -2.12132 c
-1.55874 -2.683901 -0.795609 -3 0 -3 c
cl

} bind def
1.000 setlinewidth
1 setlinejoin
0 setlinecap
[] 0 setdash
1.000 0.647 0.000 setrgbcolor
gsave
357.1 266.1 57.6 38.02 clipbox
173.548 116.266 p0_0
gsave
fill
grestore
stroke
grestore
0.000 0.000 1.000 setrgbcolor
gsave
357.1 266.1 57.6 38.02 clipbox
259.866 179.035 p0_0
gsave
fill
grestore
stroke
grestore
gsave
357.1 266.1 57.6 38.02 clipbox
251.746 201.653 p0_0
gsave
fill
grestore
stroke
grestore
0.941 0.502 0.502 setrgbcolor
gsave
357.1 266.1 57.6 38.02 clipbox
338.782 85.4025 p0_0
gsave
fill
grestore
stroke
grestore
0.000 0.502 0.000 setrgbcolor
gsave
357.1 266.1 57.6 38.02 clipbox
261.056 246.679 p0_0
gsave
fill
grestore
stroke
grestore
1.000 0.843 0.000 setrgbcolor
gsave
357.1 266.1 57.6 38.02 clipbox
157.675 196.377 p0_0
gsave
fill
grestore
stroke
grestore
0.000 0.502 0.000 setrgbcolor
gsave
357.1 266.1 57.6 38.02 clipbox
341.27 253.468 p0_0
gsave
fill
grestore
stroke
grestore
0.000 0.000 1.000 setrgbcolor
gsave
357.1 266.1 57.6 38.02 clipbox
221.478 188.321 p0_0
gsave
fill
grestore
stroke
grestore
gsave
357.1 266.1 57.6 38.02 clipbox
215.724 201.268 p0_0
gsave
fill
grestore
stroke
grestore
0.941 0.502 0.502 setrgbcolor
gsave
357.1 266.1 57.6 38.02 clipbox
389.155 114.635 p0_0
gsave
fill
grestore
stroke
grestore
1.000 0.647 0.000 setrgbcolor
gsave
357.1 266.1 57.6 38.02 clipbox
193.287 144.452 p0_0
gsave
fill
grestore
stroke
grestore
0.000 0.000 1.000 setrgbcolor
gsave
357.1 266.1 57.6 38.02 clipbox
202.932 181.2 p0_0
gsave
fill
grestore
stroke
grestore
0.000 setgray
gsave
357.1 266.1 57.6 38.02 clipbox
156.786 262.432 p0_0
gsave
fill
grestore
stroke
grestore
1.000 0.843 0.000 setrgbcolor
gsave
357.1 266.1 57.6 38.02 clipbox
173.763 241.207 p0_0
gsave
fill
grestore
stroke
grestore
1.000 0.647 0.000 setrgbcolor
gsave
357.1 266.1 57.6 38.02 clipbox
183.994 89.6376 p0_0
gsave
fill
grestore
stroke
grestore
0.000 0.000 1.000 setrgbcolor
gsave
357.1 266.1 57.6 38.02 clipbox
246 198.059 p0_0
gsave
fill
grestore
stroke
grestore
gsave
357.1 266.1 57.6 38.02 clipbox
221.435 186.363 p0_0
gsave
fill
grestore
stroke
grestore
1.000 0.843 0.000 setrgbcolor
gsave
357.1 266.1 57.6 38.02 clipbox
160.278 220.615 p0_0
gsave
fill
grestore
stroke
grestore
0.000 0.000 1.000 setrgbcolor
gsave
357.1 266.1 57.6 38.02 clipbox
297.35 152.782 p0_0
gsave
fill
grestore
stroke
grestore
gsave
357.1 266.1 57.6 38.02 clipbox
270.518 199.54 p0_0
gsave
fill
grestore
stroke
grestore
gsave
357.1 266.1 57.6 38.02 clipbox
303.41 176.509 p0_0
gsave
fill
grestore
stroke
grestore
1.000 0.843 0.000 setrgbcolor
gsave
357.1 266.1 57.6 38.02 clipbox
159.128 229.728 p0_0
gsave
fill
grestore
stroke
grestore
0.000 0.502 0.000 setrgbcolor
gsave
357.1 266.1 57.6 38.02 clipbox
196.712 256.651 p0_0
gsave
fill
grestore
stroke
grestore
0.000 0.000 1.000 setrgbcolor
gsave
357.1 266.1 57.6 38.02 clipbox
275.534 156.355 p0_0
gsave
fill
grestore
stroke
grestore
gsave
357.1 266.1 57.6 38.02 clipbox
196.548 176.59 p0_0
gsave
fill
grestore
stroke
grestore
0.545 0.000 0.000 setrgbcolor
gsave
357.1 266.1 57.6 38.02 clipbox
388.476 181.689 p0_0
gsave
fill
grestore
stroke
grestore
1.000 0.647 0.000 setrgbcolor
gsave
357.1 266.1 57.6 38.02 clipbox
188.844 101.723 p0_0
gsave
fill
grestore
stroke
grestore
0.000 0.000 1.000 setrgbcolor
gsave
357.1 266.1 57.6 38.02 clipbox
291.825 222.8 p0_0
gsave
fill
grestore
stroke
grestore
gsave
357.1 266.1 57.6 38.02 clipbox
292.769 161.548 p0_0
gsave
fill
grestore
stroke
grestore
1.000 0.647 0.000 setrgbcolor
gsave
357.1 266.1 57.6 38.02 clipbox
200.26 164.831 p0_0
gsave
fill
grestore
stroke
grestore
0.000 setgray
gsave
357.1 266.1 57.6 38.02 clipbox
130.813 276.329 p0_0
gsave
fill
grestore
stroke
grestore
1.000 0.647 0.000 setrgbcolor
gsave
357.1 266.1 57.6 38.02 clipbox
199.288 165.131 p0_0
gsave
fill
grestore
stroke
grestore
1.000 0.843 0.000 setrgbcolor
gsave
357.1 266.1 57.6 38.02 clipbox
165.972 226.472 p0_0
gsave
fill
grestore
stroke
grestore
0.941 0.502 0.502 setrgbcolor
gsave
357.1 266.1 57.6 38.02 clipbox
282.302 107.622 p0_0
gsave
fill
grestore
stroke
grestore
0.000 0.000 1.000 setrgbcolor
gsave
357.1 266.1 57.6 38.02 clipbox
239.847 204.035 p0_0
gsave
fill
grestore
stroke
grestore
1.000 0.647 0.000 setrgbcolor
gsave
357.1 266.1 57.6 38.02 clipbox
194.532 118.007 p0_0
gsave
fill
grestore
stroke
grestore
0.000 0.000 1.000 setrgbcolor
gsave
357.1 266.1 57.6 38.02 clipbox
211.556 206.559 p0_0
gsave
fill
grestore
stroke
grestore
1.000 0.647 0.000 setrgbcolor
gsave
357.1 266.1 57.6 38.02 clipbox
180.313 164.225 p0_0
gsave
fill
grestore
stroke
grestore
0.000 0.502 0.000 setrgbcolor
gsave
357.1 266.1 57.6 38.02 clipbox
215.481 241.744 p0_0
gsave
fill
grestore
stroke
grestore
1.000 0.647 0.000 setrgbcolor
gsave
357.1 266.1 57.6 38.02 clipbox
235.281 152.191 p0_0
gsave
fill
grestore
stroke
grestore
1.000 0.843 0.000 setrgbcolor
gsave
357.1 266.1 57.6 38.02 clipbox
115.868 192.66 p0_0
gsave
fill
grestore
stroke
grestore
0.000 0.000 1.000 setrgbcolor
gsave
357.1 266.1 57.6 38.02 clipbox
269.374 215.839 p0_0
gsave
fill
grestore
stroke
grestore
1.000 0.647 0.000 setrgbcolor
gsave
357.1 266.1 57.6 38.02 clipbox
218.677 118.406 p0_0
gsave
fill
grestore
stroke
grestore
0.439 0.502 0.565 setrgbcolor
gsave
357.1 266.1 57.6 38.02 clipbox
75.7977 214.733 p0_0
gsave
fill
grestore
stroke
grestore
0.000 0.000 1.000 setrgbcolor
gsave
357.1 266.1 57.6 38.02 clipbox
275.678 175.55 p0_0
gsave
fill
grestore
stroke
grestore
0.000 0.502 0.000 setrgbcolor
gsave
357.1 266.1 57.6 38.02 clipbox
305.271 290.105 p0_0
gsave
fill
grestore
stroke
grestore
1.000 0.647 0.000 setrgbcolor
gsave
357.1 266.1 57.6 38.02 clipbox
239.125 128.229 p0_0
gsave
fill
grestore
stroke
grestore
0.000 0.545 0.545 setrgbcolor
gsave
357.1 266.1 57.6 38.02 clipbox
338.377 273.722 p0_0
gsave
fill
grestore
stroke
grestore
1.000 0.843 0.000 setrgbcolor
gsave
357.1 266.1 57.6 38.02 clipbox
172.106 233.767 p0_0
gsave
fill
grestore
stroke
grestore
0.000 0.000 1.000 setrgbcolor
gsave
357.1 266.1 57.6 38.02 clipbox
224.264 221.801 p0_0
gsave
fill
grestore
stroke
grestore
gsave
357.1 266.1 57.6 38.02 clipbox
240.572 201.7 p0_0
gsave
fill
grestore
stroke
grestore
1.000 0.843 0.000 setrgbcolor
gsave
357.1 266.1 57.6 38.02 clipbox
136.815 173.594 p0_0
gsave
fill
grestore
stroke
grestore
0.000 setgray
gsave
357.1 266.1 57.6 38.02 clipbox
165.454 275.989 p0_0
gsave
fill
grestore
stroke
grestore
0.000 0.502 0.000 setrgbcolor
gsave
357.1 266.1 57.6 38.02 clipbox
286.499 245.514 p0_0
gsave
fill
grestore
stroke
grestore
1.000 0.843 0.000 setrgbcolor
gsave
357.1 266.1 57.6 38.02 clipbox
135.756 205.671 p0_0
gsave
fill
grestore
stroke
grestore
1.000 0.647 0.000 setrgbcolor
gsave
357.1 266.1 57.6 38.02 clipbox
189.476 150.953 p0_0
gsave
fill
grestore
stroke
grestore
0.000 0.000 1.000 setrgbcolor
gsave
357.1 266.1 57.6 38.02 clipbox
191.653 209.302 p0_0
gsave
fill
grestore
stroke
grestore
gsave
357.1 266.1 57.6 38.02 clipbox
217.69 172.329 p0_0
gsave
fill
grestore
stroke
grestore
1.000 0.647 0.000 setrgbcolor
gsave
357.1 266.1 57.6 38.02 clipbox
164.432 159.63 p0_0
gsave
fill
grestore
stroke
grestore
gsave
357.1 266.1 57.6 38.02 clipbox
197.985 166.622 p0_0
gsave
fill
grestore
stroke
grestore
0.000 0.502 0.000 setrgbcolor
gsave
357.1 266.1 57.6 38.02 clipbox
232.845 237.681 p0_0
gsave
fill
grestore
stroke
grestore
0.000 0.000 1.000 setrgbcolor
gsave
357.1 266.1 57.6 38.02 clipbox
267.408 131.792 p0_0
gsave
fill
grestore
stroke
grestore
1.000 0.647 0.000 setrgbcolor
gsave
357.1 266.1 57.6 38.02 clipbox
214.803 148.203 p0_0
gsave
fill
grestore
stroke
grestore
0.000 0.000 1.000 setrgbcolor
gsave
357.1 266.1 57.6 38.02 clipbox
249.924 202.784 p0_0
gsave
fill
grestore
stroke
grestore
gsave
357.1 266.1 57.6 38.02 clipbox
264.833 217.248 p0_0
gsave
fill
grestore
stroke
grestore
0.000 0.545 0.545 setrgbcolor
gsave
357.1 266.1 57.6 38.02 clipbox
366.621 253.998 p0_0
gsave
fill
grestore
stroke
grestore
0.000 0.000 1.000 setrgbcolor
gsave
357.1 266.1 57.6 38.02 clipbox
338.755 173.954 p0_0
gsave
fill
grestore
stroke
grestore
gsave
357.1 266.1 57.6 38.02 clipbox
216.511 169.341 p0_0
gsave
fill
grestore
stroke
grestore
gsave
357.1 266.1 57.6 38.02 clipbox
182.726 186.163 p0_0
gsave
fill
grestore
stroke
grestore
1.000 0.647 0.000 setrgbcolor
gsave
357.1 266.1 57.6 38.02 clipbox
221.6 104.111 p0_0
gsave
fill
grestore
stroke
grestore
0.000 setgray
gsave
357.1 266.1 57.6 38.02 clipbox
185.72 274.395 p0_0
gsave
fill
grestore
stroke
grestore
0.941 0.502 0.502 setrgbcolor
gsave
357.1 266.1 57.6 38.02 clipbox
364.035 119.697 p0_0
gsave
fill
grestore
stroke
grestore
0.000 0.000 1.000 setrgbcolor
gsave
357.1 266.1 57.6 38.02 clipbox
301.51 198.831 p0_0
gsave
fill
grestore
stroke
grestore
gsave
357.1 266.1 57.6 38.02 clipbox
267.82 151.178 p0_0
gsave
fill
grestore
stroke
grestore
0.941 0.502 0.502 setrgbcolor
gsave
357.1 266.1 57.6 38.02 clipbox
271.934 110.747 p0_0
gsave
fill
grestore
stroke
grestore
0.000 0.502 0.000 setrgbcolor
gsave
357.1 266.1 57.6 38.02 clipbox
209.318 275.32 p0_0
gsave
fill
grestore
stroke
grestore
1.000 0.843 0.000 setrgbcolor
gsave
357.1 266.1 57.6 38.02 clipbox
166.555 220.791 p0_0
gsave
fill
grestore
stroke
grestore
gsave
357.1 266.1 57.6 38.02 clipbox
183.495 202.068 p0_0
gsave
fill
grestore
stroke
grestore
0.000 0.000 1.000 setrgbcolor
gsave
357.1 266.1 57.6 38.02 clipbox
285.36 203.044 p0_0
gsave
fill
grestore
stroke
grestore
gsave
357.1 266.1 57.6 38.02 clipbox
318.87 198.746 p0_0
gsave
fill
grestore
stroke
grestore
0.000 0.502 0.000 setrgbcolor
gsave
357.1 266.1 57.6 38.02 clipbox
321.616 240.791 p0_0
gsave
fill
grestore
stroke
grestore
gsave
357.1 266.1 57.6 38.02 clipbox
251.037 252.752 p0_0
gsave
fill
grestore
stroke
grestore
0.000 0.000 1.000 setrgbcolor
gsave
357.1 266.1 57.6 38.02 clipbox
281.578 227.487 p0_0
gsave
fill
grestore
stroke
grestore
gsave
357.1 266.1 57.6 38.02 clipbox
286.61 216.686 p0_0
gsave
fill
grestore
stroke
grestore
1.000 0.647 0.000 setrgbcolor
gsave
357.1 266.1 57.6 38.02 clipbox
176.689 110.342 p0_0
gsave
fill
grestore
stroke
grestore
0.000 0.545 0.545 setrgbcolor
gsave
357.1 266.1 57.6 38.02 clipbox
382.234 247.161 p0_0
gsave
fill
grestore
stroke
grestore
0.000 0.000 1.000 setrgbcolor
gsave
357.1 266.1 57.6 38.02 clipbox
273.759 178.183 p0_0
gsave
fill
grestore
stroke
grestore
gsave
357.1 266.1 57.6 38.02 clipbox
303.225 176.335 p0_0
gsave
fill
grestore
stroke
grestore
gsave
357.1 266.1 57.6 38.02 clipbox
297.844 148.454 p0_0
gsave
fill
grestore
stroke
grestore
gsave
357.1 266.1 57.6 38.02 clipbox
279.142 173.805 p0_0
gsave
fill
grestore
stroke
grestore
gsave
357.1 266.1 57.6 38.02 clipbox
318.269 175.152 p0_0
gsave
fill
grestore
stroke
grestore
gsave
357.1 266.1 57.6 38.02 clipbox
266.136 131.491 p0_0
gsave
fill
grestore
stroke
grestore
0.000 0.502 0.000 setrgbcolor
gsave
357.1 266.1 57.6 38.02 clipbox
242.36 268.498 p0_0
gsave
fill
grestore
stroke
grestore
0.000 0.000 1.000 setrgbcolor
gsave
357.1 266.1 57.6 38.02 clipbox
300.817 198.759 p0_0
gsave
fill
grestore
stroke
grestore
1.000 0.843 0.000 setrgbcolor
gsave
357.1 266.1 57.6 38.02 clipbox
141.565 186.7 p0_0
gsave
fill
grestore
stroke
grestore
0.545 0.000 0.000 setrgbcolor
gsave
357.1 266.1 57.6 38.02 clipbox
396.522 228.545 p0_0
gsave
fill
grestore
stroke
grestore
0.000 0.502 0.000 setrgbcolor
gsave
357.1 266.1 57.6 38.02 clipbox
182.367 236.737 p0_0
gsave
fill
grestore
stroke
grestore
gsave
357.1 266.1 57.6 38.02 clipbox
213.404 271.508 p0_0
gsave
fill
grestore
stroke
grestore
1.000 0.647 0.000 setrgbcolor
gsave
357.1 266.1 57.6 38.02 clipbox
167.121 162.906 p0_0
gsave
fill
grestore
stroke
grestore
0.000 0.502 0.000 setrgbcolor
gsave
357.1 266.1 57.6 38.02 clipbox
316.55 234.962 p0_0
gsave
fill
grestore
stroke
grestore
gsave
357.1 266.1 57.6 38.02 clipbox
237.244 265.054 p0_0
gsave
fill
grestore
stroke
grestore
1.000 0.647 0.000 setrgbcolor
gsave
357.1 266.1 57.6 38.02 clipbox
199.859 78.1175 p0_0
gsave
fill
grestore
stroke
grestore
0.000 0.000 1.000 setrgbcolor
gsave
357.1 266.1 57.6 38.02 clipbox
248.027 211.377 p0_0
gsave
fill
grestore
stroke
grestore
0.545 0.000 0.000 setrgbcolor
gsave
357.1 266.1 57.6 38.02 clipbox
368.763 202.219 p0_0
gsave
fill
grestore
stroke
grestore
0.000 0.000 1.000 setrgbcolor
gsave
357.1 266.1 57.6 38.02 clipbox
291.126 189.474 p0_0
gsave
fill
grestore
stroke
grestore
0.941 0.502 0.502 setrgbcolor
gsave
357.1 266.1 57.6 38.02 clipbox
363.022 137.29 p0_0
gsave
fill
grestore
stroke
grestore
1.000 0.647 0.000 setrgbcolor
gsave
357.1 266.1 57.6 38.02 clipbox
185.098 156.209 p0_0
gsave
fill
grestore
stroke
grestore
0.000 0.000 1.000 setrgbcolor
gsave
357.1 266.1 57.6 38.02 clipbox
202.867 172.398 p0_0
gsave
fill
grestore
stroke
grestore
gsave
357.1 266.1 57.6 38.02 clipbox
219.072 191.12 p0_0
gsave
fill
grestore
stroke
grestore
1.000 0.843 0.000 setrgbcolor
gsave
357.1 266.1 57.6 38.02 clipbox
174.478 216.061 p0_0
gsave
fill
grestore
stroke
grestore
gsave
357.1 266.1 57.6 38.02 clipbox
138.827 212.68 p0_0
gsave
fill
grestore
stroke
grestore
0.000 0.000 1.000 setrgbcolor
gsave
357.1 266.1 57.6 38.02 clipbox
255.21 230.072 p0_0
gsave
fill
grestore
stroke
grestore
gsave
357.1 266.1 57.6 38.02 clipbox
260.283 212.607 p0_0
gsave
fill
grestore
stroke
grestore
1.000 0.647 0.000 setrgbcolor
gsave
357.1 266.1 57.6 38.02 clipbox
208.488 127.634 p0_0
gsave
fill
grestore
stroke
grestore
0.000 0.000 1.000 setrgbcolor
gsave
357.1 266.1 57.6 38.02 clipbox
262.019 143.139 p0_0
gsave
fill
grestore
stroke
grestore
gsave
357.1 266.1 57.6 38.02 clipbox
275.718 187.895 p0_0
gsave
fill
grestore
stroke
grestore
1.000 0.647 0.000 setrgbcolor
gsave
357.1 266.1 57.6 38.02 clipbox
200.868 160.854 p0_0
gsave
fill
grestore
stroke
grestore
0.941 0.502 0.502 setrgbcolor
gsave
357.1 266.1 57.6 38.02 clipbox
315.71 125.06 p0_0
gsave
fill
grestore
stroke
grestore
1.000 0.843 0.000 setrgbcolor
gsave
357.1 266.1 57.6 38.02 clipbox
162.055 223.791 p0_0
gsave
fill
grestore
stroke
grestore
0.000 0.000 1.000 setrgbcolor
gsave
357.1 266.1 57.6 38.02 clipbox
253.206 164.617 p0_0
gsave
fill
grestore
stroke
grestore
1.000 0.647 0.000 setrgbcolor
gsave
357.1 266.1 57.6 38.02 clipbox
208.563 162.894 p0_0
gsave
fill
grestore
stroke
grestore
0.941 0.502 0.502 setrgbcolor
gsave
357.1 266.1 57.6 38.02 clipbox
314.881 132.415 p0_0
gsave
fill
grestore
stroke
grestore
0.545 0.000 0.000 setrgbcolor
gsave
357.1 266.1 57.6 38.02 clipbox
363.022 226.719 p0_0
gsave
fill
grestore
stroke
grestore
0.000 0.000 1.000 setrgbcolor
gsave
357.1 266.1 57.6 38.02 clipbox
313.128 214.811 p0_0
gsave
fill
grestore
stroke
grestore
1.000 0.647 0.000 setrgbcolor
gsave
357.1 266.1 57.6 38.02 clipbox
156.177 161.778 p0_0
gsave
fill
grestore
stroke
grestore
gsave
357.1 266.1 57.6 38.02 clipbox
179.565 167.267 p0_0
gsave
fill
grestore
stroke
grestore
1.000 0.843 0.000 setrgbcolor
gsave
357.1 266.1 57.6 38.02 clipbox
144.784 204.56 p0_0
gsave
fill
grestore
stroke
grestore
1.000 0.647 0.000 setrgbcolor
gsave
357.1 266.1 57.6 38.02 clipbox
188.83 114.063 p0_0
gsave
fill
grestore
stroke
grestore
0.941 0.502 0.502 setrgbcolor
gsave
357.1 266.1 57.6 38.02 clipbox
283.27 106.915 p0_0
gsave
fill
grestore
stroke
grestore
1.000 0.647 0.000 setrgbcolor
gsave
357.1 266.1 57.6 38.02 clipbox
240.097 148.65 p0_0
gsave
fill
grestore
stroke
grestore
1.000 0.843 0.000 setrgbcolor
gsave
357.1 266.1 57.6 38.02 clipbox
169.921 186.173 p0_0
gsave
fill
grestore
stroke
grestore
0.545 0.000 0.000 setrgbcolor
gsave
357.1 266.1 57.6 38.02 clipbox
391.374 133.361 p0_0
gsave
fill
grestore
stroke
grestore
0.000 0.000 1.000 setrgbcolor
gsave
357.1 266.1 57.6 38.02 clipbox
206.405 203.452 p0_0
gsave
fill
grestore
stroke
grestore
1.000 0.647 0.000 setrgbcolor
gsave
357.1 266.1 57.6 38.02 clipbox
200.463 166.471 p0_0
gsave
fill
grestore
stroke
grestore
0.580 0.000 0.827 setrgbcolor
gsave
357.1 266.1 57.6 38.02 clipbox
267.606 52.0392 p0_0
gsave
fill
grestore
stroke
grestore
0.000 0.000 1.000 setrgbcolor
gsave
357.1 266.1 57.6 38.02 clipbox
252.507 213.85 p0_0
gsave
fill
grestore
stroke
grestore
gsave
357.1 266.1 57.6 38.02 clipbox
234.495 232.139 p0_0
gsave
fill
grestore
stroke
grestore
gsave
357.1 266.1 57.6 38.02 clipbox
234.971 203.193 p0_0
gsave
fill
grestore
stroke
grestore
gsave
357.1 266.1 57.6 38.02 clipbox
289.05 189.821 p0_0
gsave
fill
grestore
stroke
grestore
gsave
357.1 266.1 57.6 38.02 clipbox
212.08 184.526 p0_0
gsave
fill
grestore
stroke
grestore
gsave
357.1 266.1 57.6 38.02 clipbox
197.863 185.207 p0_0
gsave
fill
grestore
stroke
grestore
gsave
357.1 266.1 57.6 38.02 clipbox
233.044 169.555 p0_0
gsave
fill
grestore
stroke
grestore
gsave
357.1 266.1 57.6 38.02 clipbox
251.847 194.721 p0_0
gsave
fill
grestore
stroke
grestore
0.000 setgray
gsave
357.1 266.1 57.6 38.02 clipbox
109.734 281.728 p0_0
gsave
fill
grestore
stroke
grestore
0.000 0.000 1.000 setrgbcolor
gsave
357.1 266.1 57.6 38.02 clipbox
250.901 168.533 p0_0
gsave
fill
grestore
stroke
grestore
gsave
357.1 266.1 57.6 38.02 clipbox
200.364 215.816 p0_0
gsave
fill
grestore
stroke
grestore
gsave
357.1 266.1 57.6 38.02 clipbox
303.366 187.853 p0_0
gsave
fill
grestore
stroke
grestore
gsave
357.1 266.1 57.6 38.02 clipbox
244.651 174.807 p0_0
gsave
fill
grestore
stroke
grestore
1.000 0.647 0.000 setrgbcolor
gsave
357.1 266.1 57.6 38.02 clipbox
149.15 160.271 p0_0
gsave
fill
grestore
stroke
grestore
0.000 0.502 0.000 setrgbcolor
gsave
357.1 266.1 57.6 38.02 clipbox
193.625 256.966 p0_0
gsave
fill
grestore
stroke
grestore
0.800 setlinewidth
0.000 setgray
gsave
/o {
gsave
newpath
translate
0.8 setlinewidth
1 setlinejoin
0 setlinecap
0 0 m
0 -3.5 l

gsave
0.000 setgray
fill
grestore
stroke
grestore
} bind def
119.437 38.016 o
grestore
/DejaVuSans findfont
10.000 scalefont
setfont
gsave
111.484240 23.422250 translate
0.000000 rotate
0.000000 0.000000 m /zero glyphshow
6.362305 0.000000 m /period glyphshow
9.541016 0.000000 m /six glyphshow
grestore
gsave
/o {
gsave
newpath
translate
0.8 setlinewidth
1 setlinejoin
0 setlinecap
0 0 m
0 -3.5 l

gsave
0.000 setgray
fill
grestore
stroke
grestore
} bind def
184.412 38.016 o
grestore
gsave
176.459092 23.422250 translate
0.000000 rotate
0.000000 0.000000 m /zero glyphshow
6.362305 0.000000 m /period glyphshow
9.541016 0.000000 m /eight glyphshow
grestore
gsave
/o {
gsave
newpath
translate
0.8 setlinewidth
1 setlinejoin
0 setlinecap
0 0 m
0 -3.5 l

gsave
0.000 setgray
fill
grestore
stroke
grestore
} bind def
249.387 38.016 o
grestore
gsave
241.433944 23.422250 translate
0.000000 rotate
0.000000 0.000000 m /one glyphshow
6.362305 0.000000 m /period glyphshow
9.541016 0.000000 m /zero glyphshow
grestore
gsave
/o {
gsave
newpath
translate
0.8 setlinewidth
1 setlinejoin
0 setlinecap
0 0 m
0 -3.5 l

gsave
0.000 setgray
fill
grestore
stroke
grestore
} bind def
314.362 38.016 o
grestore
gsave
306.408796 23.422250 translate
0.000000 rotate
0.000000 0.000000 m /one glyphshow
6.362305 0.000000 m /period glyphshow
9.541016 0.000000 m /two glyphshow
grestore
gsave
/o {
gsave
newpath
translate
0.8 setlinewidth
1 setlinejoin
0 setlinecap
0 0 m
0 -3.5 l

gsave
0.000 setgray
fill
grestore
stroke
grestore
} bind def
379.337 38.016 o
grestore
gsave
371.383648 23.422250 translate
0.000000 rotate
0.000000 0.000000 m /one glyphshow
6.362305 0.000000 m /period glyphshow
9.541016 0.000000 m /four glyphshow
grestore
gsave
/o {
gsave
newpath
translate
0.8 setlinewidth
1 setlinejoin
0 setlinecap
0 0 m
-3.5 0 l

gsave
0.000 setgray
fill
grestore
stroke
grestore
} bind def
57.6 64.084 o
grestore
gsave
34.693750 60.287155 translate
0.000000 rotate
0.000000 0.000000 m /three glyphshow
6.362305 0.000000 m /period glyphshow
9.541016 0.000000 m /eight glyphshow
grestore
gsave
/o {
gsave
newpath
translate
0.8 setlinewidth
1 setlinejoin
0 setlinecap
0 0 m
-3.5 0 l

gsave
0.000 setgray
fill
grestore
stroke
grestore
} bind def
57.6 111.569 o
grestore
gsave
34.693750 107.772217 translate
0.000000 rotate
0.000000 0.000000 m /four glyphshow
6.362305 0.000000 m /period glyphshow
9.541016 0.000000 m /zero glyphshow
grestore
gsave
/o {
gsave
newpath
translate
0.8 setlinewidth
1 setlinejoin
0 setlinecap
0 0 m
-3.5 0 l

gsave
0.000 setgray
fill
grestore
stroke
grestore
} bind def
57.6 159.054 o
grestore
gsave
34.693750 155.257280 translate
0.000000 rotate
0.000000 0.000000 m /four glyphshow
6.362305 0.000000 m /period glyphshow
9.541016 0.000000 m /two glyphshow
grestore
gsave
/o {
gsave
newpath
translate
0.8 setlinewidth
1 setlinejoin
0 setlinecap
0 0 m
-3.5 0 l

gsave
0.000 setgray
fill
grestore
stroke
grestore
} bind def
57.6 206.539 o
grestore
gsave
34.693750 202.742342 translate
0.000000 rotate
0.000000 0.000000 m /four glyphshow
6.362305 0.000000 m /period glyphshow
9.541016 0.000000 m /four glyphshow
grestore
gsave
/o {
gsave
newpath
translate
0.8 setlinewidth
1 setlinejoin
0 setlinecap
0 0 m
-3.5 0 l

gsave
0.000 setgray
fill
grestore
stroke
grestore
} bind def
57.6 254.024 o
grestore
gsave
34.693750 250.227404 translate
0.000000 rotate
0.000000 0.000000 m /four glyphshow
6.362305 0.000000 m /period glyphshow
9.541016 0.000000 m /six glyphshow
grestore
gsave
/o {
gsave
newpath
translate
0.8 setlinewidth
1 setlinejoin
0 setlinecap
0 0 m
-3.5 0 l

gsave
0.000 setgray
fill
grestore
stroke
grestore
} bind def
57.6 301.509 o
grestore
gsave
34.693750 297.712467 translate
0.000000 rotate
0.000000 0.000000 m /four glyphshow
6.362305 0.000000 m /period glyphshow
9.541016 0.000000 m /eight glyphshow
grestore
0 setlinejoin
2 setlinecap
[] 0 setdash
gsave
57.6 38.016 m
57.6 304.128 l
stroke
grestore
gsave
414.72 38.016 m
414.72 304.128 l
stroke
grestore
gsave
57.6 38.016 m
414.72 38.016 l
stroke
grestore
gsave
57.6 304.128 m
414.72 304.128 l
stroke
grestore

end
showpage
