%!PS-Adobe-3.0 EPSF-3.0
%%Title: src/unsupervised example.eps
%%Creator: matplotlib version 2.1.1, http://matplotlib.org/
%%CreationDate: Sat Jul 18 10:31:53 2020
%%Orientation: portrait
%%BoundingBox: 75 223 536 568
%%EndComments
%%BeginProlog
/mpldict 8 dict def
mpldict begin
/m { moveto } bind def
/l { lineto } bind def
/r { rlineto } bind def
/c { curveto } bind def
/cl { closepath } bind def
/box {
m
1 index 0 r
0 exch r
neg 0 r
cl
} bind def
/clipbox {
box
clip
newpath
} bind def
%!PS-Adobe-3.0 Resource-Font
%%Title: DejaVu Sans
%%Copyright: Copyright (c) 2003 by Bitstream, Inc. All Rights Reserved. Copyright (c) 2006 by Tavmjong Bah. All Rights Reserved. DejaVu changes are in public domain 
%%Creator: Converted from TrueType to type 3 by PPR
25 dict begin
/_d{bind def}bind def
/_m{moveto}_d
/_l{lineto}_d
/_cl{closepath eofill}_d
/_c{curveto}_d
/_sc{7 -1 roll{setcachedevice}{pop pop pop pop pop pop}ifelse}_d
/_e{exec}_d
/FontName /DejaVuSans def
/PaintType 0 def
/FontMatrix[.001 0 0 .001 0 0]def
/FontBBox[-1021 -463 1793 1232]def
/FontType 3 def
/Encoding [ /period /zero /one /two /three /four /five ] def
/FontInfo 10 dict dup begin
/FamilyName (DejaVu Sans) def
/FullName (DejaVu Sans) def
/Notice (Copyright (c) 2003 by Bitstream, Inc. All Rights Reserved. Copyright (c) 2006 by Tavmjong Bah. All Rights Reserved. DejaVu changes are in public domain ) def
/Weight (Book) def
/Version (Version 2.35) def
/ItalicAngle 0.0 def
/isFixedPitch false def
/UnderlinePosition -130 def
/UnderlineThickness 90 def
end readonly def
/CharStrings 8 dict dup begin
/.notdef 0 def
/period{318 0 107 0 210 124 _sc
107 124 _m
210 124 _l
210 0 _l
107 0 _l
107 124 _l
_cl}_d
/zero{636 0 66 -13 570 742 _sc
318 664 _m
267 664 229 639 203 589 _c
177 539 165 464 165 364 _c
165 264 177 189 203 139 _c
229 89 267 64 318 64 _c
369 64 407 89 433 139 _c
458 189 471 264 471 364 _c
471 464 458 539 433 589 _c
407 639 369 664 318 664 _c
318 742 _m
399 742 461 709 505 645 _c
548 580 570 486 570 364 _c
570 241 548 147 505 83 _c
461 19 399 -13 318 -13 _c
236 -13 173 19 130 83 _c
87 147 66 241 66 364 _c
66 486 87 580 130 645 _c
173 709 236 742 318 742 _c
_cl}_d
/one{636 0 110 0 544 729 _sc
124 83 _m
285 83 _l
285 639 _l
110 604 _l
110 694 _l
284 729 _l
383 729 _l
383 83 _l
544 83 _l
544 0 _l
124 0 _l
124 83 _l
_cl}_d
/two{{636 0 73 0 536 742 _sc
192 83 _m
536 83 _l
536 0 _l
73 0 _l
73 83 _l
110 121 161 173 226 239 _c
290 304 331 346 348 365 _c
380 400 402 430 414 455 _c
426 479 433 504 433 528 _c
433 566 419 598 392 622 _c
365 646 330 659 286 659 _c
255 659 222 653 188 643 _c
154 632 117 616 78 594 _c
78 694 _l
118 710 155 722 189 730 _c
223 738 255 742 284 742 _c
}_e{359 742 419 723 464 685 _c
509 647 532 597 532 534 _c
532 504 526 475 515 449 _c
504 422 484 390 454 354 _c
446 344 420 317 376 272 _c
332 227 271 164 192 83 _c
_cl}_e}_d
/three{{636 0 76 -13 556 742 _sc
406 393 _m
453 383 490 362 516 330 _c
542 298 556 258 556 212 _c
556 140 531 84 482 45 _c
432 6 362 -13 271 -13 _c
240 -13 208 -10 176 -4 _c
144 1 110 10 76 22 _c
76 117 _l
103 101 133 89 166 81 _c
198 73 232 69 268 69 _c
330 69 377 81 409 105 _c
441 129 458 165 458 212 _c
458 254 443 288 413 312 _c
383 336 341 349 287 349 _c
}_e{202 349 _l
202 430 _l
291 430 _l
339 430 376 439 402 459 _c
428 478 441 506 441 543 _c
441 580 427 609 401 629 _c
374 649 336 659 287 659 _c
260 659 231 656 200 650 _c
169 644 135 635 98 623 _c
98 711 _l
135 721 170 729 203 734 _c
235 739 266 742 296 742 _c
370 742 429 725 473 691 _c
517 657 539 611 539 553 _c
539 513 527 479 504 451 _c
481 423 448 403 406 393 _c
_cl}_e}_d
/four{636 0 49 0 580 729 _sc
378 643 _m
129 254 _l
378 254 _l
378 643 _l
352 729 _m
476 729 _l
476 254 _l
580 254 _l
580 172 _l
476 172 _l
476 0 _l
378 0 _l
378 172 _l
49 172 _l
49 267 _l
352 729 _l
_cl}_d
/five{{636 0 77 -13 549 729 _sc
108 729 _m
495 729 _l
495 646 _l
198 646 _l
198 467 _l
212 472 227 476 241 478 _c
255 480 270 482 284 482 _c
365 482 429 459 477 415 _c
525 370 549 310 549 234 _c
549 155 524 94 475 51 _c
426 8 357 -13 269 -13 _c
238 -13 207 -10 175 -6 _c
143 -1 111 6 77 17 _c
77 116 _l
106 100 136 88 168 80 _c
199 72 232 69 267 69 _c
}_e{323 69 368 83 401 113 _c
433 143 450 183 450 234 _c
450 284 433 324 401 354 _c
368 384 323 399 267 399 _c
241 399 214 396 188 390 _c
162 384 135 375 108 363 _c
108 729 _l
_cl}_e}_d
end readonly def

/BuildGlyph
 {exch begin
 CharStrings exch
 2 copy known not{pop /.notdef}if
 true 3 1 roll get exec
 end}_d

/BuildChar {
 1 index /Encoding get exch get
 1 index /BuildGlyph get exec
}_d

FontName currentdict end definefont pop
end
%%EndProlog
mpldict begin
75.6 223.2 translate
460.8 345.6 0 0 clipbox
gsave
0 0 m
460.8 0 l
460.8 345.6 l
0 345.6 l
cl
1.000 setgray
fill
grestore
gsave
57.6 38.016 m
414.72 38.016 l
414.72 304.128 l
57.6 304.128 l
cl
1.000 setgray
fill
grestore
/p0_0 {
newpath
translate
0 -3 m
0.795609 -3 1.55874 -2.683901 2.12132 -2.12132 c
2.683901 -1.55874 3 -0.795609 3 0 c
3 0.795609 2.683901 1.55874 2.12132 2.12132 c
1.55874 2.683901 0.795609 3 0 3 c
-0.795609 3 -1.55874 2.683901 -2.12132 2.12132 c
-2.683901 1.55874 -3 0.795609 -3 0 c
-3 -0.795609 -2.683901 -1.55874 -2.12132 -2.12132 c
-1.55874 -2.683901 -0.795609 -3 0 -3 c
cl

} bind def
1.000 setlinewidth
1 setlinejoin
0 setlinecap
[] 0 setdash
1.000 0.647 0.000 setrgbcolor
gsave
357.1 266.1 57.6 38.02 clipbox
126.038 217.179 p0_0
gsave
fill
grestore
stroke
grestore
gsave
357.1 266.1 57.6 38.02 clipbox
149.76 240.63 p0_0
gsave
fill
grestore
stroke
grestore
gsave
357.1 266.1 57.6 38.02 clipbox
147.528 249.08 p0_0
gsave
fill
grestore
stroke
grestore
gsave
357.1 266.1 57.6 38.02 clipbox
171.447 205.648 p0_0
gsave
fill
grestore
stroke
grestore
gsave
357.1 266.1 57.6 38.02 clipbox
150.087 265.902 p0_0
gsave
fill
grestore
stroke
grestore
gsave
357.1 266.1 57.6 38.02 clipbox
121.676 247.109 p0_0
gsave
fill
grestore
stroke
grestore
gsave
357.1 266.1 57.6 38.02 clipbox
172.131 268.439 p0_0
gsave
fill
grestore
stroke
grestore
gsave
357.1 266.1 57.6 38.02 clipbox
139.21 244.099 p0_0
gsave
fill
grestore
stroke
grestore
gsave
357.1 266.1 57.6 38.02 clipbox
137.629 248.936 p0_0
gsave
fill
grestore
stroke
grestore
gsave
357.1 266.1 57.6 38.02 clipbox
185.29 216.57 p0_0
gsave
fill
grestore
stroke
grestore
gsave
357.1 266.1 57.6 38.02 clipbox
131.463 227.709 p0_0
gsave
fill
grestore
stroke
grestore
gsave
357.1 266.1 57.6 38.02 clipbox
134.114 241.439 p0_0
gsave
fill
grestore
stroke
grestore
gsave
357.1 266.1 57.6 38.02 clipbox
121.432 271.788 p0_0
gsave
fill
grestore
stroke
grestore
gsave
357.1 266.1 57.6 38.02 clipbox
126.097 263.858 p0_0
gsave
fill
grestore
stroke
grestore
gsave
357.1 266.1 57.6 38.02 clipbox
128.909 207.23 p0_0
gsave
fill
grestore
stroke
grestore
gsave
357.1 266.1 57.6 38.02 clipbox
145.949 247.737 p0_0
gsave
fill
grestore
stroke
grestore
gsave
357.1 266.1 57.6 38.02 clipbox
139.198 243.368 p0_0
gsave
fill
grestore
stroke
grestore
gsave
357.1 266.1 57.6 38.02 clipbox
122.391 256.164 p0_0
gsave
fill
grestore
stroke
grestore
gsave
357.1 266.1 57.6 38.02 clipbox
160.061 230.821 p0_0
gsave
fill
grestore
stroke
grestore
gsave
357.1 266.1 57.6 38.02 clipbox
152.687 248.291 p0_0
gsave
fill
grestore
stroke
grestore
gsave
357.1 266.1 57.6 38.02 clipbox
161.726 239.686 p0_0
gsave
fill
grestore
stroke
grestore
gsave
357.1 266.1 57.6 38.02 clipbox
122.076 259.569 p0_0
gsave
fill
grestore
stroke
grestore
gsave
357.1 266.1 57.6 38.02 clipbox
132.404 269.628 p0_0
gsave
fill
grestore
stroke
grestore
gsave
357.1 266.1 57.6 38.02 clipbox
154.066 232.156 p0_0
gsave
fill
grestore
stroke
grestore
gsave
357.1 266.1 57.6 38.02 clipbox
132.359 239.717 p0_0
gsave
fill
grestore
stroke
grestore
gsave
357.1 266.1 57.6 38.02 clipbox
185.104 241.621 p0_0
gsave
fill
grestore
stroke
grestore
gsave
357.1 266.1 57.6 38.02 clipbox
130.242 211.746 p0_0
gsave
fill
grestore
stroke
grestore
gsave
357.1 266.1 57.6 38.02 clipbox
158.542 256.981 p0_0
gsave
fill
grestore
stroke
grestore
gsave
357.1 266.1 57.6 38.02 clipbox
158.802 234.097 p0_0
gsave
fill
grestore
stroke
grestore
gsave
357.1 266.1 57.6 38.02 clipbox
133.379 235.323 p0_0
gsave
fill
grestore
stroke
grestore
gsave
357.1 266.1 57.6 38.02 clipbox
114.294 276.979 p0_0
gsave
fill
grestore
stroke
grestore
gsave
357.1 266.1 57.6 38.02 clipbox
133.112 235.435 p0_0
gsave
fill
grestore
stroke
grestore
gsave
357.1 266.1 57.6 38.02 clipbox
123.956 258.353 p0_0
gsave
fill
grestore
stroke
grestore
gsave
357.1 266.1 57.6 38.02 clipbox
155.926 213.949 p0_0
gsave
fill
grestore
stroke
grestore
gsave
357.1 266.1 57.6 38.02 clipbox
144.258 249.97 p0_0
gsave
fill
grestore
stroke
grestore
gsave
357.1 266.1 57.6 38.02 clipbox
131.805 217.829 p0_0
gsave
fill
grestore
stroke
grestore
gsave
357.1 266.1 57.6 38.02 clipbox
136.483 250.913 p0_0
gsave
fill
grestore
stroke
grestore
gsave
357.1 266.1 57.6 38.02 clipbox
127.897 235.097 p0_0
gsave
fill
grestore
stroke
grestore
gsave
357.1 266.1 57.6 38.02 clipbox
137.562 264.058 p0_0
gsave
fill
grestore
stroke
grestore
gsave
357.1 266.1 57.6 38.02 clipbox
143.003 230.601 p0_0
gsave
fill
grestore
stroke
grestore
gsave
357.1 266.1 57.6 38.02 clipbox
110.187 245.72 p0_0
gsave
fill
grestore
stroke
grestore
gsave
357.1 266.1 57.6 38.02 clipbox
152.373 254.38 p0_0
gsave
fill
grestore
stroke
grestore
gsave
357.1 266.1 57.6 38.02 clipbox
138.44 217.978 p0_0
gsave
fill
grestore
stroke
grestore
gsave
357.1 266.1 57.6 38.02 clipbox
99.1752 253.967 p0_0
gsave
fill
grestore
stroke
grestore
gsave
357.1 266.1 57.6 38.02 clipbox
154.105 239.328 p0_0
gsave
fill
grestore
stroke
grestore
gsave
357.1 266.1 57.6 38.02 clipbox
162.238 282.126 p0_0
gsave
fill
grestore
stroke
grestore
gsave
357.1 266.1 57.6 38.02 clipbox
144.06 221.648 p0_0
gsave
fill
grestore
stroke
grestore
gsave
357.1 266.1 57.6 38.02 clipbox
171.336 276.006 p0_0
gsave
fill
grestore
stroke
grestore
gsave
357.1 266.1 57.6 38.02 clipbox
125.642 261.078 p0_0
gsave
fill
grestore
stroke
grestore
gsave
357.1 266.1 57.6 38.02 clipbox
139.976 256.607 p0_0
gsave
fill
grestore
stroke
grestore
gsave
357.1 266.1 57.6 38.02 clipbox
144.457 249.098 p0_0
gsave
fill
grestore
stroke
grestore
gsave
357.1 266.1 57.6 38.02 clipbox
115.944 238.597 p0_0
gsave
fill
grestore
stroke
grestore
gsave
357.1 266.1 57.6 38.02 clipbox
123.814 276.853 p0_0
gsave
fill
grestore
stroke
grestore
gsave
357.1 266.1 57.6 38.02 clipbox
157.079 265.467 p0_0
gsave
fill
grestore
stroke
grestore
gsave
357.1 266.1 57.6 38.02 clipbox
115.653 250.581 p0_0
gsave
fill
grestore
stroke
grestore
gsave
357.1 266.1 57.6 38.02 clipbox
130.416 230.138 p0_0
gsave
fill
grestore
stroke
grestore
gsave
357.1 266.1 57.6 38.02 clipbox
131.014 251.938 p0_0
gsave
fill
grestore
stroke
grestore
gsave
357.1 266.1 57.6 38.02 clipbox
138.169 238.124 p0_0
gsave
fill
grestore
stroke
grestore
gsave
357.1 266.1 57.6 38.02 clipbox
123.533 233.38 p0_0
gsave
fill
grestore
stroke
grestore
gsave
357.1 266.1 57.6 38.02 clipbox
132.754 235.992 p0_0
gsave
fill
grestore
stroke
grestore
gsave
357.1 266.1 57.6 38.02 clipbox
142.334 262.541 p0_0
gsave
fill
grestore
stroke
grestore
gsave
357.1 266.1 57.6 38.02 clipbox
151.832 222.979 p0_0
gsave
fill
grestore
stroke
grestore
gsave
357.1 266.1 57.6 38.02 clipbox
137.376 229.111 p0_0
gsave
fill
grestore
stroke
grestore
gsave
357.1 266.1 57.6 38.02 clipbox
147.028 249.503 p0_0
gsave
fill
grestore
stroke
grestore
gsave
357.1 266.1 57.6 38.02 clipbox
151.125 254.906 p0_0
gsave
fill
grestore
stroke
grestore
gsave
357.1 266.1 57.6 38.02 clipbox
179.097 268.637 p0_0
gsave
fill
grestore
stroke
grestore
gsave
357.1 266.1 57.6 38.02 clipbox
171.44 238.731 p0_0
gsave
fill
grestore
stroke
grestore
gsave
357.1 266.1 57.6 38.02 clipbox
137.845 237.008 p0_0
gsave
fill
grestore
stroke
grestore
gsave
357.1 266.1 57.6 38.02 clipbox
128.561 243.293 p0_0
gsave
fill
grestore
stroke
grestore
gsave
357.1 266.1 57.6 38.02 clipbox
139.244 212.638 p0_0
gsave
fill
grestore
stroke
grestore
gsave
357.1 266.1 57.6 38.02 clipbox
129.383 276.257 p0_0
gsave
fill
grestore
stroke
grestore
gsave
357.1 266.1 57.6 38.02 clipbox
178.387 218.461 p0_0
gsave
fill
grestore
stroke
grestore
gsave
357.1 266.1 57.6 38.02 clipbox
161.204 248.026 p0_0
gsave
fill
grestore
stroke
grestore
gsave
357.1 266.1 57.6 38.02 clipbox
151.946 230.222 p0_0
gsave
fill
grestore
stroke
grestore
gsave
357.1 266.1 57.6 38.02 clipbox
153.076 215.117 p0_0
gsave
fill
grestore
stroke
grestore
gsave
357.1 266.1 57.6 38.02 clipbox
135.869 276.603 p0_0
gsave
fill
grestore
stroke
grestore
gsave
357.1 266.1 57.6 38.02 clipbox
124.117 256.23 p0_0
gsave
fill
grestore
stroke
grestore
gsave
357.1 266.1 57.6 38.02 clipbox
128.772 249.235 p0_0
gsave
fill
grestore
stroke
grestore
gsave
357.1 266.1 57.6 38.02 clipbox
156.766 249.6 p0_0
gsave
fill
grestore
stroke
grestore
gsave
357.1 266.1 57.6 38.02 clipbox
165.975 247.994 p0_0
gsave
fill
grestore
stroke
grestore
gsave
357.1 266.1 57.6 38.02 clipbox
166.729 263.702 p0_0
gsave
fill
grestore
stroke
grestore
gsave
357.1 266.1 57.6 38.02 clipbox
147.333 268.171 p0_0
gsave
fill
grestore
stroke
grestore
gsave
357.1 266.1 57.6 38.02 clipbox
155.726 258.732 p0_0
gsave
fill
grestore
stroke
grestore
gsave
357.1 266.1 57.6 38.02 clipbox
157.11 254.697 p0_0
gsave
fill
grestore
stroke
grestore
gsave
357.1 266.1 57.6 38.02 clipbox
126.902 214.966 p0_0
gsave
fill
grestore
stroke
grestore
gsave
357.1 266.1 57.6 38.02 clipbox
183.388 266.082 p0_0
gsave
fill
grestore
stroke
grestore
gsave
357.1 266.1 57.6 38.02 clipbox
153.578 240.311 p0_0
gsave
fill
grestore
stroke
grestore
gsave
357.1 266.1 57.6 38.02 clipbox
161.676 239.621 p0_0
gsave
fill
grestore
stroke
grestore
gsave
357.1 266.1 57.6 38.02 clipbox
160.197 229.205 p0_0
gsave
fill
grestore
stroke
grestore
gsave
357.1 266.1 57.6 38.02 clipbox
155.057 238.676 p0_0
gsave
fill
grestore
stroke
grestore
gsave
357.1 266.1 57.6 38.02 clipbox
165.81 239.179 p0_0
gsave
fill
grestore
stroke
grestore
gsave
357.1 266.1 57.6 38.02 clipbox
151.483 222.867 p0_0
gsave
fill
grestore
stroke
grestore
gsave
357.1 266.1 57.6 38.02 clipbox
144.949 274.054 p0_0
gsave
fill
grestore
stroke
grestore
gsave
357.1 266.1 57.6 38.02 clipbox
161.014 247.999 p0_0
gsave
fill
grestore
stroke
grestore
gsave
357.1 266.1 57.6 38.02 clipbox
117.249 243.493 p0_0
gsave
fill
grestore
stroke
grestore
gsave
357.1 266.1 57.6 38.02 clipbox
187.315 259.127 p0_0
gsave
fill
grestore
stroke
grestore
gsave
357.1 266.1 57.6 38.02 clipbox
128.462 262.188 p0_0
gsave
fill
grestore
stroke
grestore
gsave
357.1 266.1 57.6 38.02 clipbox
136.991 275.179 p0_0
gsave
fill
grestore
stroke
grestore
gsave
357.1 266.1 57.6 38.02 clipbox
124.272 234.604 p0_0
gsave
fill
grestore
stroke
grestore
gsave
357.1 266.1 57.6 38.02 clipbox
165.337 261.524 p0_0
gsave
fill
grestore
stroke
grestore
gsave
357.1 266.1 57.6 38.02 clipbox
143.543 272.767 p0_0
gsave
fill
grestore
stroke
grestore
gsave
357.1 266.1 57.6 38.02 clipbox
133.269 202.926 p0_0
gsave
fill
grestore
stroke
grestore
gsave
357.1 266.1 57.6 38.02 clipbox
146.506 252.713 p0_0
gsave
fill
grestore
stroke
grestore
gsave
357.1 266.1 57.6 38.02 clipbox
179.686 249.292 p0_0
gsave
fill
grestore
stroke
grestore
gsave
357.1 266.1 57.6 38.02 clipbox
158.35 244.53 p0_0
gsave
fill
grestore
stroke
grestore
gsave
357.1 266.1 57.6 38.02 clipbox
178.109 225.033 p0_0
gsave
fill
grestore
stroke
grestore
gsave
357.1 266.1 57.6 38.02 clipbox
129.212 232.102 p0_0
gsave
fill
grestore
stroke
grestore
gsave
357.1 266.1 57.6 38.02 clipbox
134.096 238.15 p0_0
gsave
fill
grestore
stroke
grestore
gsave
357.1 266.1 57.6 38.02 clipbox
138.549 245.145 p0_0
gsave
fill
grestore
stroke
grestore
gsave
357.1 266.1 57.6 38.02 clipbox
126.294 254.463 p0_0
gsave
fill
grestore
stroke
grestore
gsave
357.1 266.1 57.6 38.02 clipbox
116.496 253.2 p0_0
gsave
fill
grestore
stroke
grestore
gsave
357.1 266.1 57.6 38.02 clipbox
148.48 259.698 p0_0
gsave
fill
grestore
stroke
grestore
gsave
357.1 266.1 57.6 38.02 clipbox
149.874 253.173 p0_0
gsave
fill
grestore
stroke
grestore
gsave
357.1 266.1 57.6 38.02 clipbox
135.64 221.426 p0_0
gsave
fill
grestore
stroke
grestore
gsave
357.1 266.1 57.6 38.02 clipbox
150.352 227.219 p0_0
gsave
fill
grestore
stroke
grestore
gsave
357.1 266.1 57.6 38.02 clipbox
154.116 243.94 p0_0
gsave
fill
grestore
stroke
grestore
gsave
357.1 266.1 57.6 38.02 clipbox
133.546 233.837 p0_0
gsave
fill
grestore
stroke
grestore
gsave
357.1 266.1 57.6 38.02 clipbox
165.107 220.464 p0_0
gsave
fill
grestore
stroke
grestore
gsave
357.1 266.1 57.6 38.02 clipbox
122.88 257.351 p0_0
gsave
fill
grestore
stroke
grestore
gsave
357.1 266.1 57.6 38.02 clipbox
147.93 235.243 p0_0
gsave
fill
grestore
stroke
grestore
gsave
357.1 266.1 57.6 38.02 clipbox
135.661 234.599 p0_0
gsave
fill
grestore
stroke
grestore
gsave
357.1 266.1 57.6 38.02 clipbox
164.879 223.212 p0_0
gsave
fill
grestore
stroke
grestore
gsave
357.1 266.1 57.6 38.02 clipbox
178.109 258.445 p0_0
gsave
fill
grestore
stroke
grestore
gsave
357.1 266.1 57.6 38.02 clipbox
164.397 253.996 p0_0
gsave
fill
grestore
stroke
grestore
gsave
357.1 266.1 57.6 38.02 clipbox
121.265 234.182 p0_0
gsave
fill
grestore
stroke
grestore
gsave
357.1 266.1 57.6 38.02 clipbox
127.692 236.233 p0_0
gsave
fill
grestore
stroke
grestore
gsave
357.1 266.1 57.6 38.02 clipbox
118.133 250.166 p0_0
gsave
fill
grestore
stroke
grestore
gsave
357.1 266.1 57.6 38.02 clipbox
130.238 216.356 p0_0
gsave
fill
grestore
stroke
grestore
gsave
357.1 266.1 57.6 38.02 clipbox
156.192 213.685 p0_0
gsave
fill
grestore
stroke
grestore
gsave
357.1 266.1 57.6 38.02 clipbox
144.327 229.278 p0_0
gsave
fill
grestore
stroke
grestore
gsave
357.1 266.1 57.6 38.02 clipbox
125.042 243.297 p0_0
gsave
fill
grestore
stroke
grestore
gsave
357.1 266.1 57.6 38.02 clipbox
185.9 223.566 p0_0
gsave
fill
grestore
stroke
grestore
gsave
357.1 266.1 57.6 38.02 clipbox
135.068 249.752 p0_0
gsave
fill
grestore
stroke
grestore
gsave
357.1 266.1 57.6 38.02 clipbox
133.435 235.936 p0_0
gsave
fill
grestore
stroke
grestore
gsave
357.1 266.1 57.6 38.02 clipbox
151.887 193.183 p0_0
gsave
fill
grestore
stroke
grestore
gsave
357.1 266.1 57.6 38.02 clipbox
147.738 253.637 p0_0
gsave
fill
grestore
stroke
grestore
gsave
357.1 266.1 57.6 38.02 clipbox
142.788 260.47 p0_0
gsave
fill
grestore
stroke
grestore
gsave
357.1 266.1 57.6 38.02 clipbox
142.918 249.655 p0_0
gsave
fill
grestore
stroke
grestore
gsave
357.1 266.1 57.6 38.02 clipbox
157.78 244.659 p0_0
gsave
fill
grestore
stroke
grestore
gsave
357.1 266.1 57.6 38.02 clipbox
136.627 242.681 p0_0
gsave
fill
grestore
stroke
grestore
gsave
357.1 266.1 57.6 38.02 clipbox
132.721 242.936 p0_0
gsave
fill
grestore
stroke
grestore
gsave
357.1 266.1 57.6 38.02 clipbox
142.389 237.088 p0_0
gsave
fill
grestore
stroke
grestore
gsave
357.1 266.1 57.6 38.02 clipbox
147.556 246.49 p0_0
gsave
fill
grestore
stroke
grestore
gsave
357.1 266.1 57.6 38.02 clipbox
108.501 278.997 p0_0
gsave
fill
grestore
stroke
grestore
gsave
357.1 266.1 57.6 38.02 clipbox
147.296 236.706 p0_0
gsave
fill
grestore
stroke
grestore
gsave
357.1 266.1 57.6 38.02 clipbox
133.408 254.372 p0_0
gsave
fill
grestore
stroke
grestore
gsave
357.1 266.1 57.6 38.02 clipbox
161.714 243.924 p0_0
gsave
fill
grestore
stroke
grestore
gsave
357.1 266.1 57.6 38.02 clipbox
145.578 239.05 p0_0
gsave
fill
grestore
stroke
grestore
gsave
357.1 266.1 57.6 38.02 clipbox
119.333 233.619 p0_0
gsave
fill
grestore
stroke
grestore
gsave
357.1 266.1 57.6 38.02 clipbox
131.556 269.745 p0_0
gsave
fill
grestore
stroke
grestore
0.000 0.000 1.000 setrgbcolor
gsave
357.1 266.1 57.6 38.02 clipbox
325.44 100.109 p0_0
gsave
fill
grestore
stroke
grestore
0.800 setlinewidth
0.000 setgray
gsave
/o {
gsave
newpath
translate
0.8 setlinewidth
1 setlinejoin
0 setlinecap
0 0 m
0 -3.5 l

gsave
0.000 setgray
fill
grestore
stroke
grestore
} bind def
57.6 38.016 o
grestore
/DejaVuSans findfont
10.000 scalefont
setfont
gsave
49.646875 23.422250 translate
0.000000 rotate
0.000000 0.000000 m /zero glyphshow
6.362305 0.000000 m /period glyphshow
9.541016 0.000000 m /zero glyphshow
grestore
gsave
/o {
gsave
newpath
translate
0.8 setlinewidth
1 setlinejoin
0 setlinecap
0 0 m
0 -3.5 l

gsave
0.000 setgray
fill
grestore
stroke
grestore
} bind def
102.24 38.016 o
grestore
gsave
94.286875 23.422250 translate
0.000000 rotate
0.000000 0.000000 m /zero glyphshow
6.362305 0.000000 m /period glyphshow
9.541016 0.000000 m /five glyphshow
grestore
gsave
/o {
gsave
newpath
translate
0.8 setlinewidth
1 setlinejoin
0 setlinecap
0 0 m
0 -3.5 l

gsave
0.000 setgray
fill
grestore
stroke
grestore
} bind def
146.88 38.016 o
grestore
gsave
138.926875 23.422250 translate
0.000000 rotate
0.000000 0.000000 m /one glyphshow
6.362305 0.000000 m /period glyphshow
9.541016 0.000000 m /zero glyphshow
grestore
gsave
/o {
gsave
newpath
translate
0.8 setlinewidth
1 setlinejoin
0 setlinecap
0 0 m
0 -3.5 l

gsave
0.000 setgray
fill
grestore
stroke
grestore
} bind def
191.52 38.016 o
grestore
gsave
183.566875 23.422250 translate
0.000000 rotate
0.000000 0.000000 m /one glyphshow
6.362305 0.000000 m /period glyphshow
9.541016 0.000000 m /five glyphshow
grestore
gsave
/o {
gsave
newpath
translate
0.8 setlinewidth
1 setlinejoin
0 setlinecap
0 0 m
0 -3.5 l

gsave
0.000 setgray
fill
grestore
stroke
grestore
} bind def
236.16 38.016 o
grestore
gsave
228.206875 23.422250 translate
0.000000 rotate
0.000000 0.000000 m /two glyphshow
6.362305 0.000000 m /period glyphshow
9.541016 0.000000 m /zero glyphshow
grestore
gsave
/o {
gsave
newpath
translate
0.8 setlinewidth
1 setlinejoin
0 setlinecap
0 0 m
0 -3.5 l

gsave
0.000 setgray
fill
grestore
stroke
grestore
} bind def
280.8 38.016 o
grestore
gsave
272.846875 23.422250 translate
0.000000 rotate
0.000000 0.000000 m /two glyphshow
6.362305 0.000000 m /period glyphshow
9.541016 0.000000 m /five glyphshow
grestore
gsave
/o {
gsave
newpath
translate
0.8 setlinewidth
1 setlinejoin
0 setlinecap
0 0 m
0 -3.5 l

gsave
0.000 setgray
fill
grestore
stroke
grestore
} bind def
325.44 38.016 o
grestore
gsave
317.486875 23.422250 translate
0.000000 rotate
0.000000 0.000000 m /three glyphshow
6.362305 0.000000 m /period glyphshow
9.541016 0.000000 m /zero glyphshow
grestore
gsave
/o {
gsave
newpath
translate
0.8 setlinewidth
1 setlinejoin
0 setlinecap
0 0 m
0 -3.5 l

gsave
0.000 setgray
fill
grestore
stroke
grestore
} bind def
370.08 38.016 o
grestore
gsave
362.126875 23.422250 translate
0.000000 rotate
0.000000 0.000000 m /three glyphshow
6.362305 0.000000 m /period glyphshow
9.541016 0.000000 m /five glyphshow
grestore
gsave
/o {
gsave
newpath
translate
0.8 setlinewidth
1 setlinejoin
0 setlinecap
0 0 m
0 -3.5 l

gsave
0.000 setgray
fill
grestore
stroke
grestore
} bind def
414.72 38.016 o
grestore
gsave
406.766875 23.422250 translate
0.000000 rotate
0.000000 0.000000 m /four glyphshow
6.362305 0.000000 m /period glyphshow
9.541016 0.000000 m /zero glyphshow
grestore
gsave
/o {
gsave
newpath
translate
0.8 setlinewidth
1 setlinejoin
0 setlinecap
0 0 m
-3.5 0 l

gsave
0.000 setgray
fill
grestore
stroke
grestore
} bind def
57.6 38.016 o
grestore
gsave
34.693750 34.219125 translate
0.000000 rotate
0.000000 0.000000 m /two glyphshow
6.362305 0.000000 m /period glyphshow
9.541016 0.000000 m /zero glyphshow
grestore
gsave
/o {
gsave
newpath
translate
0.8 setlinewidth
1 setlinejoin
0 setlinecap
0 0 m
-3.5 0 l

gsave
0.000 setgray
fill
grestore
stroke
grestore
} bind def
57.6 82.368 o
grestore
gsave
34.693750 78.571125 translate
0.000000 rotate
0.000000 0.000000 m /two glyphshow
6.362305 0.000000 m /period glyphshow
9.541016 0.000000 m /five glyphshow
grestore
gsave
/o {
gsave
newpath
translate
0.8 setlinewidth
1 setlinejoin
0 setlinecap
0 0 m
-3.5 0 l

gsave
0.000 setgray
fill
grestore
stroke
grestore
} bind def
57.6 126.72 o
grestore
gsave
34.693750 122.923125 translate
0.000000 rotate
0.000000 0.000000 m /three glyphshow
6.362305 0.000000 m /period glyphshow
9.541016 0.000000 m /zero glyphshow
grestore
gsave
/o {
gsave
newpath
translate
0.8 setlinewidth
1 setlinejoin
0 setlinecap
0 0 m
-3.5 0 l

gsave
0.000 setgray
fill
grestore
stroke
grestore
} bind def
57.6 171.072 o
grestore
gsave
34.693750 167.275125 translate
0.000000 rotate
0.000000 0.000000 m /three glyphshow
6.362305 0.000000 m /period glyphshow
9.541016 0.000000 m /five glyphshow
grestore
gsave
/o {
gsave
newpath
translate
0.8 setlinewidth
1 setlinejoin
0 setlinecap
0 0 m
-3.5 0 l

gsave
0.000 setgray
fill
grestore
stroke
grestore
} bind def
57.6 215.424 o
grestore
gsave
34.693750 211.627125 translate
0.000000 rotate
0.000000 0.000000 m /four glyphshow
6.362305 0.000000 m /period glyphshow
9.541016 0.000000 m /zero glyphshow
grestore
gsave
/o {
gsave
newpath
translate
0.8 setlinewidth
1 setlinejoin
0 setlinecap
0 0 m
-3.5 0 l

gsave
0.000 setgray
fill
grestore
stroke
grestore
} bind def
57.6 259.776 o
grestore
gsave
34.693750 255.979125 translate
0.000000 rotate
0.000000 0.000000 m /four glyphshow
6.362305 0.000000 m /period glyphshow
9.541016 0.000000 m /five glyphshow
grestore
gsave
/o {
gsave
newpath
translate
0.8 setlinewidth
1 setlinejoin
0 setlinecap
0 0 m
-3.5 0 l

gsave
0.000 setgray
fill
grestore
stroke
grestore
} bind def
57.6 304.128 o
grestore
gsave
34.693750 300.331125 translate
0.000000 rotate
0.000000 0.000000 m /five glyphshow
6.362305 0.000000 m /period glyphshow
9.541016 0.000000 m /zero glyphshow
grestore
0 setlinejoin
2 setlinecap
[] 0 setdash
gsave
57.6 38.016 m
57.6 304.128 l
stroke
grestore
gsave
414.72 38.016 m
414.72 304.128 l
stroke
grestore
gsave
57.6 38.016 m
414.72 38.016 l
stroke
grestore
gsave
57.6 304.128 m
414.72 304.128 l
stroke
grestore

end
showpage
